A Tale of Two Cities
…
Intuitively, fans will probably have expected amounts in this order
of magnitude.

Let’s see how that spending played out year over year…

AnnualSpending <-
  LFCvMCFC %>%
  group_by(Year, Club) %>%
  summarise(AnnualSpend = sum(Fee))

## `summarise()` has grouped output by 'Year'. You can override using the `.groups` argument.

AnnualSpending

## # A tibble: 23 × 3
## # Groups:   Year [12]
##     Year Club  AnnualSpend
##    <dbl> <chr>       <dbl>
##  1  2008 LFC          39  
##  2  2008 MCFC         77.7
##  3  2009 LFC          36  
##  4  2009 MCFC        168  
##  5  2010 LFC          22.4
##  6  2010 MCFC        135. 
##  7  2011 LFC         114. 
##  8  2011 MCFC        100  
##  9  2012 LFC          28.9
## 10  2012 MCFC         57  
## # ℹ 13 more rows
…
We were curious how these massive financial resources had be
allocated to positions on the pitch, also…

PositionSummary <-
  
 LFCvMCFC %>%
  group_by(Position, Club) %>%
    summarise(Total= sum(Fee))

## `summarise()` has grouped output by 'Position'. You can override using the `.groups` argument.

PositionSummary

## # A tibble: 24 × 3
## # Groups:   Position [12]
##    Position           Club  Total
##    <chr>              <chr> <dbl>
##  1 Attacking Midfield LFC    31.8
##  2 Attacking Midfield MCFC  102  
##  3 Centre Back        LFC   138. 
##  4 Centre Back        MCFC  261. 
##  5 Centre Forward     LFC   200. 
##  6 Centre Forward     MCFC  257. 
##  7 Centre Midfield    LFC   186. 
##  8 Centre Midfield    MCFC   88.8
##  9 Defensive Midfiled LFC    53.5
## 10 Defensive Midfiled MCFC  102. 
## # ℹ 14 more rows
…
What stories emerge when looking at teams that players were purchased
“From”?

PartnerSummary <-
  LFCvMCFC %>%
  group_by(Club, From) %>%
  summarise(Total = sum(Fee))

## `summarise()` has grouped output by 'Club'. You can override using the `.groups` argument.

PartnerSummary

## # A tibble: 110 × 3
## # Groups:   Club [2]
##    Club  From                Total
##    <chr> <chr>               <dbl>
##  1 LFC   1.FSV Mainz 05        4.7
##  2 LFC   AC Milan             16  
##  3 LFC   AEK Athens            1.5
##  4 LFC   AS Roma             117. 
##  5 LFC   Ajax                 23  
##  6 LFC   Arsenal              35  
##  7 LFC   Aston Villa          52.5
##  8 LFC   Atletico Madrid       0  
##  9 LFC   Bayer 04 Leverkusen  11  
## 10 LFC   Benfica              20  
## # ℹ 100 more rows
…
#Summarize the data
  PepSpendingSummary <-
    PepSpending %>%
    group_by(Year, League) %>%
    summarise(Total = sum(Fee))

## `summarise()` has grouped output by 'Year'. You can override using the `.groups` argument.

PepSpendingSummary

## # A tibble: 26 × 3
## # Groups:   Year [11]
##     Year League         Total
##    <dbl> <chr>          <dbl>
##  1  2008 Bundesliga       6.7
##  2  2008 La Liga         39  
##  3  2008 Premier League  14  
##  4  2009 Bundesliga      16  
##  5  2009 La Liga          0  
##  6  2009 Premier League 152  
##  7  2010 Bundesliga      11  
##  8  2010 La Liga         49  
##  9  2010 Premier League  26  
## 10  2011 Bundesliga      27  
## # ℹ 16 more rows
…
